Mar-15 14:59:35.009 [main] DEBUG nextflow.cli.Launcher - $> nextflow run .
Mar-15 14:59:35.086 [main] INFO  nextflow.cli.CmdRun - N E X T F L O W  ~  version 20.10.0
Mar-15 14:59:35.538 [main] INFO  nextflow.cli.CmdRun - Launching `./main.nf` [clever_knuth] - revision: e0eb2e778e
Mar-15 14:59:35.567 [main] DEBUG nextflow.config.ConfigBuilder - Found config local: /Users/ord006/WorkBench/tools/nextflow/ska-sdp-continuum-test/pipelines/nextflow.config
Mar-15 14:59:35.572 [main] DEBUG nextflow.config.ConfigBuilder - Parsing config file: /Users/ord006/WorkBench/tools/nextflow/ska-sdp-continuum-test/pipelines/nextflow.config
Mar-15 14:59:35.578 [main] DEBUG nextflow.config.ConfigBuilder - Applying config profile: `standard`
Mar-15 14:59:35.637 [main] DEBUG nextflow.Session - Session uuid: 0104cc74-cda6-497f-bb95-51c97043aeb7
Mar-15 14:59:35.637 [main] DEBUG nextflow.Session - Run name: clever_knuth
Mar-15 14:59:35.638 [main] DEBUG nextflow.Session - Executor pool size: 8
Mar-15 14:59:35.667 [main] DEBUG nextflow.cli.CmdRun - 
  Version: 20.10.0 build 5430
  Created: 01-11-2020 15:14 UTC (02-11-2020 02:14 AEDT)
  System: Mac OS X 10.16
  Runtime: Groovy 3.0.5 on Java HotSpot(TM) 64-Bit Server VM 15.0.1+9-18
  Encoding: UTF-8 (UTF-8)
  Process: 30879@miranda [127.0.0.1]
  CPUs: 8 - Mem: 16 GB (22.7 MB) - Swap: 2 GB (754.8 MB)
Mar-15 14:59:35.679 [main] DEBUG nextflow.Session - Work-dir: /Users/ord006/WorkBench/tools/nextflow/ska-sdp-continuum-test/pipelines/work [Mac OS X]
Mar-15 14:59:35.679 [main] DEBUG nextflow.Session - Script base path does not exist or is not a directory: /Users/ord006/WorkBench/tools/nextflow/ska-sdp-continuum-test/pipelines/bin
Mar-15 14:59:35.718 [main] DEBUG nextflow.Session - Observer factory: TowerFactory
Mar-15 14:59:35.720 [main] DEBUG nextflow.Session - Observer factory: DefaultObserverFactory
Mar-15 14:59:35.839 [main] DEBUG nextflow.Session - Session start invoked
Mar-15 14:59:36.011 [main] DEBUG nextflow.script.ScriptRunner - > Launching execution
Mar-15 14:59:36.018 [main] DEBUG nextflow.Session - Workflow process names [dsl1]: sayHello
Mar-15 14:59:36.077 [main] DEBUG nextflow.executor.ExecutorFactory - << taskConfig executor: null
Mar-15 14:59:36.077 [main] DEBUG nextflow.executor.ExecutorFactory - >> processorType: 'local'
Mar-15 14:59:36.081 [main] DEBUG nextflow.executor.Executor - [warm up] executor > local
Mar-15 14:59:36.085 [main] DEBUG n.processor.LocalPollingMonitor - Creating local task monitor for executor 'local' > cpus=8; memory=16 GB; capacity=8; pollInterval=100ms; dumpInterval=5m
Mar-15 14:59:36.155 [main] DEBUG nextflow.script.ScriptRunner - > Await termination 
Mar-15 14:59:36.155 [main] DEBUG nextflow.Session - Session await
Mar-15 14:59:36.229 [Task submitter] DEBUG nextflow.executor.LocalTaskHandler - Launch cmd line: /bin/bash -ue .command.run
Mar-15 14:59:36.233 [Task submitter] INFO  nextflow.Session - [e6/bdc7ac] Submitted process > sayHello (1)
Mar-15 14:59:36.770 [Task monitor] DEBUG n.processor.TaskPollingMonitor - Task completed > TaskHandler[id: 1; name: sayHello (1); status: COMPLETED; exit: 0; error: -; workDir: /Users/ord006/WorkBench/tools/nextflow/ska-sdp-continuum-test/pipelines/work/e6/bdc7ac8f1bec60155d68af19a94a3e]
Mar-15 14:59:36.778 [main] DEBUG nextflow.Session - Session await > all process finished
Mar-15 14:59:36.779 [main] DEBUG nextflow.Session - Session await > all barriers passed
Mar-15 14:59:36.783 [main] DEBUG nextflow.trace.WorkflowStatsObserver - Workflow completed > WorkflowStats[succeededCount=1; failedCount=0; ignoredCount=0; cachedCount=0; pendingCount=0; submittedCount=0; runningCount=0; retriesCount=0; abortedCount=0; succeedDuration=473ms; failedDuration=0ms; cachedDuration=0ms;loadCpus=0; loadMemory=0; peakRunning=1; peakCpus=1; peakMemory=0; ]
Mar-15 14:59:36.903 [main] DEBUG nextflow.CacheDB - Closing CacheDB done
Mar-15 14:59:36.908 [main] DEBUG nextflow.util.SpuriousDeps - AWS S3 uploader shutdown
Mar-15 14:59:36.918 [main] DEBUG nextflow.script.ScriptRunner - > Execution complete -- Goodbye
