Mar-15 15:15:38.437 [main] DEBUG nextflow.cli.Launcher - $> nextflow run .
Mar-15 15:15:38.507 [main] INFO  nextflow.cli.CmdRun - N E X T F L O W  ~  version 20.10.0
Mar-15 15:15:38.948 [main] INFO  nextflow.cli.CmdRun - Launching `./main.nf` [romantic_shaw] - revision: e138df355d
Mar-15 15:15:38.968 [main] DEBUG nextflow.config.ConfigBuilder - Found config local: /Users/ord006/WorkBench/tools/nextflow/ska-sdp-continuum-test/pipelines/nextflow.config
Mar-15 15:15:38.968 [main] DEBUG nextflow.config.ConfigBuilder - Parsing config file: /Users/ord006/WorkBench/tools/nextflow/ska-sdp-continuum-test/pipelines/nextflow.config
Mar-15 15:15:38.974 [main] DEBUG nextflow.config.ConfigBuilder - Applying config profile: `standard`
Mar-15 15:15:39.034 [main] DEBUG nextflow.Session - Session uuid: e176bdeb-7d86-4332-a104-2112f6ec2988
Mar-15 15:15:39.034 [main] DEBUG nextflow.Session - Run name: romantic_shaw
Mar-15 15:15:39.034 [main] DEBUG nextflow.Session - Executor pool size: 8
Mar-15 15:15:39.063 [main] DEBUG nextflow.cli.CmdRun - 
  Version: 20.10.0 build 5430
  Created: 01-11-2020 15:14 UTC (02-11-2020 02:14 AEDT)
  System: Mac OS X 10.16
  Runtime: Groovy 3.0.5 on Java HotSpot(TM) 64-Bit Server VM 15.0.1+9-18
  Encoding: UTF-8 (UTF-8)
  Process: 36494@miranda [127.0.0.1]
  CPUs: 8 - Mem: 16 GB (16.9 MB) - Swap: 2 GB (914.8 MB)
Mar-15 15:15:39.075 [main] DEBUG nextflow.Session - Work-dir: /Users/ord006/WorkBench/tools/nextflow/ska-sdp-continuum-test/pipelines/work [Mac OS X]
Mar-15 15:15:39.075 [main] DEBUG nextflow.Session - Script base path does not exist or is not a directory: /Users/ord006/WorkBench/tools/nextflow/ska-sdp-continuum-test/pipelines/bin
Mar-15 15:15:39.114 [main] DEBUG nextflow.Session - Observer factory: TowerFactory
Mar-15 15:15:39.115 [main] DEBUG nextflow.Session - Observer factory: DefaultObserverFactory
Mar-15 15:15:39.247 [main] DEBUG nextflow.Session - Session start invoked
Mar-15 15:15:39.466 [main] DEBUG nextflow.script.ScriptRunner - > Launching execution
Mar-15 15:15:39.473 [main] DEBUG nextflow.Session - Workflow process names [dsl1]: image, test
Mar-15 15:15:39.542 [main] DEBUG nextflow.executor.ExecutorFactory - << taskConfig executor: null
Mar-15 15:15:39.542 [main] DEBUG nextflow.executor.ExecutorFactory - >> processorType: 'local'
Mar-15 15:15:39.546 [main] DEBUG nextflow.executor.Executor - [warm up] executor > local
Mar-15 15:15:39.552 [main] DEBUG n.processor.LocalPollingMonitor - Creating local task monitor for executor 'local' > cpus=8; memory=16 GB; capacity=8; pollInterval=100ms; dumpInterval=5m
Mar-15 15:15:39.618 [main] DEBUG nextflow.executor.ExecutorFactory - << taskConfig executor: null
Mar-15 15:15:39.618 [main] DEBUG nextflow.executor.ExecutorFactory - >> processorType: 'local'
Mar-15 15:15:39.623 [main] DEBUG nextflow.script.ScriptRunner - > Await termination 
Mar-15 15:15:39.624 [main] DEBUG nextflow.Session - Session await
Mar-15 15:15:39.709 [Task submitter] DEBUG nextflow.executor.LocalTaskHandler - Launch cmd line: /bin/bash -ue .command.run
Mar-15 15:15:39.713 [Task submitter] INFO  nextflow.Session - [22/8dcd57] Submitted process > image (1)
Mar-15 15:17:01.896 [Task monitor] DEBUG n.processor.TaskPollingMonitor - Task completed > TaskHandler[id: 1; name: image (1); status: COMPLETED; exit: 0; error: -; workDir: /Users/ord006/WorkBench/tools/nextflow/ska-sdp-continuum-test/pipelines/work/22/8dcd5746231fbfa65a3d3c86b67def]
Mar-15 15:17:01.939 [Task submitter] DEBUG nextflow.executor.LocalTaskHandler - Launch cmd line: /bin/bash -ue .command.run
Mar-15 15:17:01.940 [Task submitter] INFO  nextflow.Session - [d7/dc7923] Submitted process > test (1)
Mar-15 15:17:02.187 [Task monitor] DEBUG n.processor.TaskPollingMonitor - Task completed > TaskHandler[id: 2; name: test (1); status: COMPLETED; exit: 1; error: -; workDir: /Users/ord006/WorkBench/tools/nextflow/ska-sdp-continuum-test/pipelines/work/d7/dc7923ba5861423aca38052df1a61e]
Mar-15 15:17:02.218 [Task monitor] ERROR nextflow.processor.TaskProcessor - Error executing process > 'test (1)'

Caused by:
  Process `test (1)` terminated with an error exit status (1)

Command executed:

  imgstat restored_image

Command exit status:
  1

Command output:
  (empty)

Command error:
  Debug: registered context Global=0
  Unexpected exception in imgstat: Table restored_image does not exist

Work dir:
  /Users/ord006/WorkBench/tools/nextflow/ska-sdp-continuum-test/pipelines/work/d7/dc7923ba5861423aca38052df1a61e

Tip: you can replicate the issue by changing to the process work dir and entering the command `bash .command.run`
Mar-15 15:17:02.222 [main] DEBUG nextflow.Session - Session await > all process finished
Mar-15 15:17:02.224 [Task monitor] DEBUG nextflow.Session - Session aborted -- Cause: Process `test (1)` terminated with an error exit status (1)
Mar-15 15:17:02.242 [main] DEBUG nextflow.Session - Session await > all barriers passed
Mar-15 15:17:02.250 [main] DEBUG nextflow.trace.WorkflowStatsObserver - Workflow completed > WorkflowStats[succeededCount=1; failedCount=1; ignoredCount=0; cachedCount=0; pendingCount=0; submittedCount=0; runningCount=0; retriesCount=0; abortedCount=0; succeedDuration=1m 22s; failedDuration=196ms; cachedDuration=0ms;loadCpus=0; loadMemory=0; peakRunning=1; peakCpus=1; peakMemory=0; ]
Mar-15 15:17:02.650 [main] DEBUG nextflow.CacheDB - Closing CacheDB done
Mar-15 15:17:02.658 [main] DEBUG nextflow.util.SpuriousDeps - AWS S3 uploader shutdown
Mar-15 15:17:02.676 [main] DEBUG nextflow.script.ScriptRunner - > Execution complete -- Goodbye
