Mar-15 15:01:39.897 [main] DEBUG nextflow.cli.Launcher - $> nextflow run .
Mar-15 15:01:39.972 [main] INFO  nextflow.cli.CmdRun - N E X T F L O W  ~  version 20.10.0
Mar-15 15:01:40.453 [main] INFO  nextflow.cli.CmdRun - Launching `./main.nf` [nostalgic_goldberg] - revision: f82fcdbf54
Mar-15 15:01:40.472 [main] DEBUG nextflow.config.ConfigBuilder - Found config local: /Users/ord006/WorkBench/tools/nextflow/ska-sdp-continuum-test/pipelines/nextflow.config
Mar-15 15:01:40.473 [main] DEBUG nextflow.config.ConfigBuilder - Parsing config file: /Users/ord006/WorkBench/tools/nextflow/ska-sdp-continuum-test/pipelines/nextflow.config
Mar-15 15:01:40.478 [main] DEBUG nextflow.config.ConfigBuilder - Applying config profile: `standard`
Mar-15 15:01:40.534 [main] DEBUG nextflow.Session - Session uuid: 514a70c8-5d1a-41eb-99b8-197deacd9d23
Mar-15 15:01:40.534 [main] DEBUG nextflow.Session - Run name: nostalgic_goldberg
Mar-15 15:01:40.535 [main] DEBUG nextflow.Session - Executor pool size: 8
Mar-15 15:01:40.562 [main] DEBUG nextflow.cli.CmdRun - 
  Version: 20.10.0 build 5430
  Created: 01-11-2020 15:14 UTC (02-11-2020 02:14 AEDT)
  System: Mac OS X 10.16
  Runtime: Groovy 3.0.5 on Java HotSpot(TM) 64-Bit Server VM 15.0.1+9-18
  Encoding: UTF-8 (UTF-8)
  Process: 31109@miranda [127.0.0.1]
  CPUs: 8 - Mem: 16 GB (216.1 MB) - Swap: 2 GB (786.8 MB)
Mar-15 15:01:40.575 [main] DEBUG nextflow.Session - Work-dir: /Users/ord006/WorkBench/tools/nextflow/ska-sdp-continuum-test/pipelines/work [Mac OS X]
Mar-15 15:01:40.576 [main] DEBUG nextflow.Session - Script base path does not exist or is not a directory: /Users/ord006/WorkBench/tools/nextflow/ska-sdp-continuum-test/pipelines/bin
Mar-15 15:01:40.608 [main] DEBUG nextflow.Session - Observer factory: TowerFactory
Mar-15 15:01:40.610 [main] DEBUG nextflow.Session - Observer factory: DefaultObserverFactory
Mar-15 15:01:40.720 [main] DEBUG nextflow.Session - Session start invoked
Mar-15 15:01:40.928 [main] DEBUG nextflow.script.ScriptRunner - > Launching execution
Mar-15 15:01:40.935 [main] DEBUG nextflow.Session - Workflow process names [dsl1]: sayHello
Mar-15 15:01:40.994 [main] DEBUG nextflow.executor.ExecutorFactory - << taskConfig executor: null
Mar-15 15:01:40.994 [main] DEBUG nextflow.executor.ExecutorFactory - >> processorType: 'local'
Mar-15 15:01:40.998 [main] DEBUG nextflow.executor.Executor - [warm up] executor > local
Mar-15 15:01:41.003 [main] DEBUG n.processor.LocalPollingMonitor - Creating local task monitor for executor 'local' > cpus=8; memory=16 GB; capacity=8; pollInterval=100ms; dumpInterval=5m
Mar-15 15:01:41.078 [main] DEBUG nextflow.script.ScriptRunner - > Await termination 
Mar-15 15:01:41.079 [main] DEBUG nextflow.Session - Session await
Mar-15 15:01:41.166 [Task submitter] DEBUG nextflow.executor.LocalTaskHandler - Launch cmd line: /bin/bash -ue .command.run
Mar-15 15:01:41.170 [Task submitter] INFO  nextflow.Session - [96/5b1412] Submitted process > sayHello (1)
Mar-15 15:01:41.504 [Task monitor] DEBUG n.processor.TaskPollingMonitor - Task completed > TaskHandler[id: 1; name: sayHello (1); status: COMPLETED; exit: 0; error: -; workDir: /Users/ord006/WorkBench/tools/nextflow/ska-sdp-continuum-test/pipelines/work/96/5b141272b62d7045cfb77b6da6607c]
Mar-15 15:01:41.512 [main] DEBUG nextflow.Session - Session await > all process finished
Mar-15 15:01:41.512 [main] DEBUG nextflow.Session - Session await > all barriers passed
Mar-15 15:01:41.517 [main] DEBUG nextflow.trace.WorkflowStatsObserver - Workflow completed > WorkflowStats[succeededCount=1; failedCount=0; ignoredCount=0; cachedCount=0; pendingCount=0; submittedCount=0; runningCount=0; retriesCount=0; abortedCount=0; succeedDuration=284ms; failedDuration=0ms; cachedDuration=0ms;loadCpus=0; loadMemory=0; peakRunning=1; peakCpus=1; peakMemory=0; ]
Mar-15 15:01:41.589 [main] DEBUG nextflow.CacheDB - Closing CacheDB done
Mar-15 15:01:41.594 [main] DEBUG nextflow.util.SpuriousDeps - AWS S3 uploader shutdown
Mar-15 15:01:41.607 [main] DEBUG nextflow.script.ScriptRunner - > Execution complete -- Goodbye
