Mar-15 15:02:55.678 [main] DEBUG nextflow.cli.Launcher - $> nextflow run .
Mar-15 15:02:55.750 [main] INFO  nextflow.cli.CmdRun - N E X T F L O W  ~  version 20.10.0
Mar-15 15:02:56.175 [main] INFO  nextflow.cli.CmdRun - Launching `./main.nf` [zen_goldwasser] - revision: 5b96937752
Mar-15 15:02:56.189 [main] DEBUG nextflow.config.ConfigBuilder - Found config local: /Users/ord006/WorkBench/tools/nextflow/ska-sdp-continuum-test/pipelines/nextflow.config
Mar-15 15:02:56.190 [main] DEBUG nextflow.config.ConfigBuilder - Parsing config file: /Users/ord006/WorkBench/tools/nextflow/ska-sdp-continuum-test/pipelines/nextflow.config
Mar-15 15:02:56.195 [main] DEBUG nextflow.config.ConfigBuilder - Applying config profile: `standard`
Mar-15 15:02:56.249 [main] DEBUG nextflow.Session - Session uuid: 69942c5a-4c94-4da7-86f0-8c3f476ceb73
Mar-15 15:02:56.250 [main] DEBUG nextflow.Session - Run name: zen_goldwasser
Mar-15 15:02:56.250 [main] DEBUG nextflow.Session - Executor pool size: 8
Mar-15 15:02:56.276 [main] DEBUG nextflow.cli.CmdRun - 
  Version: 20.10.0 build 5430
  Created: 01-11-2020 15:14 UTC (02-11-2020 02:14 AEDT)
  System: Mac OS X 10.16
  Runtime: Groovy 3.0.5 on Java HotSpot(TM) 64-Bit Server VM 15.0.1+9-18
  Encoding: UTF-8 (UTF-8)
  Process: 31364@miranda [127.0.0.1]
  CPUs: 8 - Mem: 16 GB (170.4 MB) - Swap: 2 GB (818.8 MB)
Mar-15 15:02:56.288 [main] DEBUG nextflow.Session - Work-dir: /Users/ord006/WorkBench/tools/nextflow/ska-sdp-continuum-test/pipelines/work [Mac OS X]
Mar-15 15:02:56.289 [main] DEBUG nextflow.Session - Script base path does not exist or is not a directory: /Users/ord006/WorkBench/tools/nextflow/ska-sdp-continuum-test/pipelines/bin
Mar-15 15:02:56.321 [main] DEBUG nextflow.Session - Observer factory: TowerFactory
Mar-15 15:02:56.322 [main] DEBUG nextflow.Session - Observer factory: DefaultObserverFactory
Mar-15 15:02:56.411 [main] DEBUG nextflow.Session - Session start invoked
Mar-15 15:02:56.598 [main] DEBUG nextflow.script.ScriptRunner - > Launching execution
Mar-15 15:02:56.606 [main] DEBUG nextflow.Session - Workflow process names [dsl1]: sayHello
Mar-15 15:02:56.658 [main] DEBUG nextflow.executor.ExecutorFactory - << taskConfig executor: null
Mar-15 15:02:56.659 [main] DEBUG nextflow.executor.ExecutorFactory - >> processorType: 'local'
Mar-15 15:02:56.662 [main] DEBUG nextflow.executor.Executor - [warm up] executor > local
Mar-15 15:02:56.667 [main] DEBUG n.processor.LocalPollingMonitor - Creating local task monitor for executor 'local' > cpus=8; memory=16 GB; capacity=8; pollInterval=100ms; dumpInterval=5m
Mar-15 15:02:56.735 [main] DEBUG nextflow.script.ScriptRunner - > Await termination 
Mar-15 15:02:56.736 [main] DEBUG nextflow.Session - Session await
Mar-15 15:02:56.812 [Task submitter] DEBUG nextflow.executor.LocalTaskHandler - Launch cmd line: /bin/bash -ue .command.run
Mar-15 15:02:56.816 [Task submitter] INFO  nextflow.Session - [dc/cd2a0c] Submitted process > sayHello (1)
Mar-15 15:04:16.156 [Task monitor] DEBUG n.processor.TaskPollingMonitor - Task completed > TaskHandler[id: 1; name: sayHello (1); status: COMPLETED; exit: 0; error: -; workDir: /Users/ord006/WorkBench/tools/nextflow/ska-sdp-continuum-test/pipelines/work/dc/cd2a0c2883640756f55ccfa0c3cb02]
Mar-15 15:04:16.217 [main] DEBUG nextflow.Session - Session await > all process finished
Mar-15 15:04:16.217 [main] DEBUG nextflow.Session - Session await > all barriers passed
Mar-15 15:04:16.228 [main] DEBUG nextflow.trace.WorkflowStatsObserver - Workflow completed > WorkflowStats[succeededCount=1; failedCount=0; ignoredCount=0; cachedCount=0; pendingCount=0; submittedCount=0; runningCount=0; retriesCount=0; abortedCount=0; succeedDuration=1m 19s; failedDuration=0ms; cachedDuration=0ms;loadCpus=0; loadMemory=0; peakRunning=1; peakCpus=1; peakMemory=0; ]
Mar-15 15:04:16.486 [main] DEBUG nextflow.CacheDB - Closing CacheDB done
Mar-15 15:04:16.492 [main] DEBUG nextflow.util.SpuriousDeps - AWS S3 uploader shutdown
Mar-15 15:04:16.508 [main] DEBUG nextflow.script.ScriptRunner - > Execution complete -- Goodbye
