Mar-15 15:14:52.237 [main] DEBUG nextflow.cli.Launcher - $> nextflow run .
Mar-15 15:14:52.314 [main] INFO  nextflow.cli.CmdRun - N E X T F L O W  ~  version 20.10.0
Mar-15 15:14:52.819 [main] INFO  nextflow.cli.CmdRun - Launching `./main.nf` [amazing_hodgkin] - revision: 6cb2cce6a9
Mar-15 15:14:52.838 [main] DEBUG nextflow.config.ConfigBuilder - Found config local: /Users/ord006/WorkBench/tools/nextflow/ska-sdp-continuum-test/pipelines/nextflow.config
Mar-15 15:14:52.838 [main] DEBUG nextflow.config.ConfigBuilder - Parsing config file: /Users/ord006/WorkBench/tools/nextflow/ska-sdp-continuum-test/pipelines/nextflow.config
Mar-15 15:14:52.843 [main] DEBUG nextflow.config.ConfigBuilder - Applying config profile: `standard`
Mar-15 15:14:52.907 [main] DEBUG nextflow.Session - Session uuid: 9dc35bf5-0fb4-420f-bee9-37decacf358a
Mar-15 15:14:52.907 [main] DEBUG nextflow.Session - Run name: amazing_hodgkin
Mar-15 15:14:52.907 [main] DEBUG nextflow.Session - Executor pool size: 8
Mar-15 15:14:52.937 [main] DEBUG nextflow.cli.CmdRun - 
  Version: 20.10.0 build 5430
  Created: 01-11-2020 15:14 UTC (02-11-2020 02:14 AEDT)
  System: Mac OS X 10.16
  Runtime: Groovy 3.0.5 on Java HotSpot(TM) 64-Bit Server VM 15.0.1+9-18
  Encoding: UTF-8 (UTF-8)
  Process: 34207@miranda [127.0.0.1]
  CPUs: 8 - Mem: 16 GB (62.1 MB) - Swap: 2 GB (882.8 MB)
Mar-15 15:14:52.950 [main] DEBUG nextflow.Session - Work-dir: /Users/ord006/WorkBench/tools/nextflow/ska-sdp-continuum-test/pipelines/work [Mac OS X]
Mar-15 15:14:52.950 [main] DEBUG nextflow.Session - Script base path does not exist or is not a directory: /Users/ord006/WorkBench/tools/nextflow/ska-sdp-continuum-test/pipelines/bin
Mar-15 15:14:52.990 [main] DEBUG nextflow.Session - Observer factory: TowerFactory
Mar-15 15:14:52.992 [main] DEBUG nextflow.Session - Observer factory: DefaultObserverFactory
Mar-15 15:14:53.118 [main] DEBUG nextflow.Session - Session start invoked
Mar-15 15:14:53.322 [main] DEBUG nextflow.script.ScriptRunner - > Launching execution
Mar-15 15:14:53.330 [main] DEBUG nextflow.Session - Workflow process names [dsl1]: image, test
Mar-15 15:14:53.404 [main] DEBUG nextflow.Session - Session aborted -- Cause: Not a valid process body definition: output
Mar-15 15:14:53.417 [main] ERROR nextflow.cli.Launcher - Not a valid process body definition: output
java.lang.IllegalArgumentException: Not a valid process body definition: output
	at java.base/jdk.internal.reflect.NativeConstructorAccessorImpl.newInstance0(Native Method)
	at java.base/jdk.internal.reflect.NativeConstructorAccessorImpl.newInstance(NativeConstructorAccessorImpl.java:64)
	at java.base/jdk.internal.reflect.DelegatingConstructorAccessorImpl.newInstance(DelegatingConstructorAccessorImpl.java:45)
	at java.base/java.lang.reflect.Constructor.newInstanceWithCaller(Constructor.java:500)
	at java.base/java.lang.reflect.Constructor.newInstance(Constructor.java:481)
	at org.codehaus.groovy.reflection.CachedConstructor.invoke(CachedConstructor.java:72)
	at org.codehaus.groovy.reflection.CachedConstructor.doConstructorInvoke(CachedConstructor.java:59)
	at org.codehaus.groovy.runtime.callsite.ConstructorSite$ConstructorSiteNoUnwrap.callConstructor(ConstructorSite.java:84)
	at org.codehaus.groovy.runtime.callsite.CallSiteArray.defaultCallConstructor(CallSiteArray.java:59)
	at org.codehaus.groovy.runtime.callsite.AbstractCallSite.callConstructor(AbstractCallSite.java:263)
	at org.codehaus.groovy.runtime.callsite.AbstractCallSite.callConstructor(AbstractCallSite.java:277)
	at nextflow.script.BodyDef.setType(BodyDef.groovy:101)
	at nextflow.script.BodyDef.<init>(BodyDef.groovy:57)
	at nextflow.script.BodyDef.<init>(BodyDef.groovy:61)
	at java.base/jdk.internal.reflect.NativeConstructorAccessorImpl.newInstance0(Native Method)
	at java.base/jdk.internal.reflect.NativeConstructorAccessorImpl.newInstance(NativeConstructorAccessorImpl.java:64)
	at java.base/jdk.internal.reflect.DelegatingConstructorAccessorImpl.newInstance(DelegatingConstructorAccessorImpl.java:45)
	at java.base/java.lang.reflect.Constructor.newInstanceWithCaller(Constructor.java:500)
	at java.base/java.lang.reflect.Constructor.newInstance(Constructor.java:481)
	at org.codehaus.groovy.reflection.CachedConstructor.invoke(CachedConstructor.java:72)
	at org.codehaus.groovy.reflection.CachedConstructor.doConstructorInvoke(CachedConstructor.java:59)
	at org.codehaus.groovy.runtime.callsite.ConstructorSite.callConstructor(ConstructorSite.java:45)
	at org.codehaus.groovy.runtime.callsite.CallSiteArray.defaultCallConstructor(CallSiteArray.java:59)
	at org.codehaus.groovy.runtime.callsite.AbstractCallSite.callConstructor(AbstractCallSite.java:263)
	at Script_d1d1eb41$_runScript_closure1.doCall(Script_d1d1eb41:17)
	at Script_d1d1eb41$_runScript_closure1.doCall(Script_d1d1eb41)
	at java.base/jdk.internal.reflect.NativeMethodAccessorImpl.invoke0(Native Method)
	at java.base/jdk.internal.reflect.NativeMethodAccessorImpl.invoke(NativeMethodAccessorImpl.java:64)
	at java.base/jdk.internal.reflect.DelegatingMethodAccessorImpl.invoke(DelegatingMethodAccessorImpl.java:43)
	at java.base/java.lang.reflect.Method.invoke(Method.java:564)
	at org.codehaus.groovy.reflection.CachedMethod.invoke(CachedMethod.java:107)
	at groovy.lang.MetaMethod.doMethodInvoke(MetaMethod.java:323)
	at org.codehaus.groovy.runtime.metaclass.ClosureMetaClass.invokeMethod(ClosureMetaClass.java:263)
	at groovy.lang.MetaClassImpl.invokeMethod(MetaClassImpl.java:1026)
	at groovy.lang.Closure.call(Closure.java:412)
	at groovy.lang.Closure.call(Closure.java:406)
	at nextflow.script.ProcessFactory.createProcessor(ProcessFactory.groovy:95)
	at nextflow.script.ProcessFactory$createProcessor.call(Unknown Source)
	at org.codehaus.groovy.runtime.callsite.CallSiteArray.defaultCall(CallSiteArray.java:47)
	at org.codehaus.groovy.runtime.callsite.AbstractCallSite.call(AbstractCallSite.java:125)
	at org.codehaus.groovy.runtime.callsite.AbstractCallSite.call(AbstractCallSite.java:148)
	at nextflow.script.BaseScript.process(BaseScript.groovy:115)
	at java.base/jdk.internal.reflect.NativeMethodAccessorImpl.invoke0(Native Method)
	at java.base/jdk.internal.reflect.NativeMethodAccessorImpl.invoke(NativeMethodAccessorImpl.java:64)
	at java.base/jdk.internal.reflect.DelegatingMethodAccessorImpl.invoke(DelegatingMethodAccessorImpl.java:43)
	at java.base/java.lang.reflect.Method.invoke(Method.java:564)
	at org.codehaus.groovy.runtime.callsite.PlainObjectMetaMethodSite.doInvoke(PlainObjectMetaMethodSite.java:43)
	at org.codehaus.groovy.runtime.callsite.PogoMetaMethodSite$PogoCachedMethodSiteNoUnwrapNoCoerce.invoke(PogoMetaMethodSite.java:193)
	at org.codehaus.groovy.runtime.callsite.PogoMetaMethodSite.callCurrent(PogoMetaMethodSite.java:61)
	at org.codehaus.groovy.runtime.callsite.CallSiteArray.defaultCallCurrent(CallSiteArray.java:51)
	at org.codehaus.groovy.runtime.callsite.AbstractCallSite.callCurrent(AbstractCallSite.java:171)
	at org.codehaus.groovy.runtime.callsite.AbstractCallSite.callCurrent(AbstractCallSite.java:194)
	at Script_d1d1eb41.runScript(Script_d1d1eb41:6)
	at nextflow.script.BaseScript.runDsl1(BaseScript.groovy:164)
	at nextflow.script.BaseScript.run(BaseScript.groovy:200)
	at nextflow.script.ScriptParser.runScript(ScriptParser.groovy:219)
	at nextflow.script.ScriptRunner.run(ScriptRunner.groovy:219)
	at nextflow.script.ScriptRunner.execute(ScriptRunner.groovy:127)
	at nextflow.cli.CmdRun.run(CmdRun.groovy:277)
	at nextflow.cli.Launcher.run(Launcher.groovy:466)
	at nextflow.cli.Launcher.main(Launcher.groovy:648)
