Mar-15 15:02:15.998 [main] DEBUG nextflow.cli.Launcher - $> nextflow run .
Mar-15 15:02:16.080 [main] INFO  nextflow.cli.CmdRun - N E X T F L O W  ~  version 20.10.0
Mar-15 15:02:16.505 [main] INFO  nextflow.cli.CmdRun - Launching `./main.nf` [magical_murdock] - revision: 4171b37d39
Mar-15 15:02:16.534 [main] DEBUG nextflow.config.ConfigBuilder - Found config local: /Users/ord006/WorkBench/tools/nextflow/ska-sdp-continuum-test/pipelines/nextflow.config
Mar-15 15:02:16.535 [main] DEBUG nextflow.config.ConfigBuilder - Parsing config file: /Users/ord006/WorkBench/tools/nextflow/ska-sdp-continuum-test/pipelines/nextflow.config
Mar-15 15:02:16.540 [main] DEBUG nextflow.config.ConfigBuilder - Applying config profile: `standard`
Mar-15 15:02:16.594 [main] DEBUG nextflow.Session - Session uuid: 14d997ea-9fe3-46e9-b987-c087f39493df
Mar-15 15:02:16.594 [main] DEBUG nextflow.Session - Run name: magical_murdock
Mar-15 15:02:16.595 [main] DEBUG nextflow.Session - Executor pool size: 8
Mar-15 15:02:16.621 [main] DEBUG nextflow.cli.CmdRun - 
  Version: 20.10.0 build 5430
  Created: 01-11-2020 15:14 UTC (02-11-2020 02:14 AEDT)
  System: Mac OS X 10.16
  Runtime: Groovy 3.0.5 on Java HotSpot(TM) 64-Bit Server VM 15.0.1+9-18
  Encoding: UTF-8 (UTF-8)
  Process: 31246@miranda [127.0.0.1]
  CPUs: 8 - Mem: 16 GB (204.8 MB) - Swap: 2 GB (818.8 MB)
Mar-15 15:02:16.633 [main] DEBUG nextflow.Session - Work-dir: /Users/ord006/WorkBench/tools/nextflow/ska-sdp-continuum-test/pipelines/work [Mac OS X]
Mar-15 15:02:16.633 [main] DEBUG nextflow.Session - Script base path does not exist or is not a directory: /Users/ord006/WorkBench/tools/nextflow/ska-sdp-continuum-test/pipelines/bin
Mar-15 15:02:16.664 [main] DEBUG nextflow.Session - Observer factory: TowerFactory
Mar-15 15:02:16.666 [main] DEBUG nextflow.Session - Observer factory: DefaultObserverFactory
Mar-15 15:02:16.767 [main] DEBUG nextflow.Session - Session start invoked
Mar-15 15:02:16.932 [main] DEBUG nextflow.script.ScriptRunner - > Launching execution
Mar-15 15:02:16.938 [main] DEBUG nextflow.Session - Workflow process names [dsl1]: sayHello
Mar-15 15:02:16.989 [main] DEBUG nextflow.executor.ExecutorFactory - << taskConfig executor: null
Mar-15 15:02:16.989 [main] DEBUG nextflow.executor.ExecutorFactory - >> processorType: 'local'
Mar-15 15:02:16.993 [main] DEBUG nextflow.executor.Executor - [warm up] executor > local
Mar-15 15:02:16.996 [main] DEBUG n.processor.LocalPollingMonitor - Creating local task monitor for executor 'local' > cpus=8; memory=16 GB; capacity=8; pollInterval=100ms; dumpInterval=5m
Mar-15 15:02:17.062 [main] DEBUG nextflow.script.ScriptRunner - > Await termination 
Mar-15 15:02:17.063 [main] DEBUG nextflow.Session - Session await
Mar-15 15:02:17.137 [Task submitter] DEBUG nextflow.executor.LocalTaskHandler - Launch cmd line: /bin/bash -ue .command.run
Mar-15 15:02:17.141 [Task submitter] INFO  nextflow.Session - [8d/a95db3] Submitted process > sayHello (1)
Mar-15 15:02:17.450 [Task monitor] DEBUG n.processor.TaskPollingMonitor - Task completed > TaskHandler[id: 1; name: sayHello (1); status: COMPLETED; exit: 0; error: -; workDir: /Users/ord006/WorkBench/tools/nextflow/ska-sdp-continuum-test/pipelines/work/8d/a95db3eef03fb52424c154ade02547]
Mar-15 15:02:17.458 [main] DEBUG nextflow.Session - Session await > all process finished
Mar-15 15:02:17.458 [main] DEBUG nextflow.Session - Session await > all barriers passed
Mar-15 15:02:17.464 [main] DEBUG nextflow.trace.WorkflowStatsObserver - Workflow completed > WorkflowStats[succeededCount=1; failedCount=0; ignoredCount=0; cachedCount=0; pendingCount=0; submittedCount=0; runningCount=0; retriesCount=0; abortedCount=0; succeedDuration=232ms; failedDuration=0ms; cachedDuration=0ms;loadCpus=0; loadMemory=0; peakRunning=1; peakCpus=1; peakMemory=0; ]
Mar-15 15:02:17.624 [main] DEBUG nextflow.CacheDB - Closing CacheDB done
Mar-15 15:02:17.629 [main] DEBUG nextflow.util.SpuriousDeps - AWS S3 uploader shutdown
Mar-15 15:02:17.640 [main] DEBUG nextflow.script.ScriptRunner - > Execution complete -- Goodbye
