Mar-15 15:14:29.827 [main] DEBUG nextflow.cli.Launcher - $> nextflow run .
Mar-15 15:14:29.907 [main] INFO  nextflow.cli.CmdRun - N E X T F L O W  ~  version 20.10.0
Mar-15 15:14:30.406 [main] INFO  nextflow.cli.CmdRun - Launching `./main.nf` [desperate_gates] - revision: 22df848875
Mar-15 15:14:30.431 [main] DEBUG nextflow.config.ConfigBuilder - Found config local: /Users/ord006/WorkBench/tools/nextflow/ska-sdp-continuum-test/pipelines/nextflow.config
Mar-15 15:14:30.432 [main] DEBUG nextflow.config.ConfigBuilder - Parsing config file: /Users/ord006/WorkBench/tools/nextflow/ska-sdp-continuum-test/pipelines/nextflow.config
Mar-15 15:14:30.437 [main] DEBUG nextflow.config.ConfigBuilder - Applying config profile: `standard`
Mar-15 15:14:30.498 [main] DEBUG nextflow.Session - Session uuid: 3a122367-8520-4c8d-b4d6-7c50d11c27d5
Mar-15 15:14:30.499 [main] DEBUG nextflow.Session - Run name: desperate_gates
Mar-15 15:14:30.499 [main] DEBUG nextflow.Session - Executor pool size: 8
Mar-15 15:14:30.541 [main] DEBUG nextflow.cli.CmdRun - 
  Version: 20.10.0 build 5430
  Created: 01-11-2020 15:14 UTC (02-11-2020 02:14 AEDT)
  System: Mac OS X 10.16
  Runtime: Groovy 3.0.5 on Java HotSpot(TM) 64-Bit Server VM 15.0.1+9-18
  Encoding: UTF-8 (UTF-8)
  Process: 31958@miranda [127.0.0.1]
  CPUs: 8 - Mem: 16 GB (32.1 MB) - Swap: 2 GB (882.8 MB)
Mar-15 15:14:30.554 [main] DEBUG nextflow.Session - Work-dir: /Users/ord006/WorkBench/tools/nextflow/ska-sdp-continuum-test/pipelines/work [Mac OS X]
Mar-15 15:14:30.554 [main] DEBUG nextflow.Session - Script base path does not exist or is not a directory: /Users/ord006/WorkBench/tools/nextflow/ska-sdp-continuum-test/pipelines/bin
Mar-15 15:14:30.598 [main] DEBUG nextflow.Session - Observer factory: TowerFactory
Mar-15 15:14:30.601 [main] DEBUG nextflow.Session - Observer factory: DefaultObserverFactory
Mar-15 15:14:30.726 [main] DEBUG nextflow.Session - Session start invoked
Mar-15 15:14:30.855 [main] ERROR nextflow.cli.Launcher - Script compilation error
- file : /Users/ord006/WorkBench/tools/nextflow/ska-sdp-continuum-test/pipelines/main.nf
- cause: Invalid process definition -- Unknown keyword `file` @ line 17, column 11.
       file: 'image.cont.taylor.0.restored' into restored_image
             ^

1 error

