Mar-15 15:00:16.456 [main] DEBUG nextflow.cli.Launcher - $> nextflow run .
Mar-15 15:00:16.536 [main] INFO  nextflow.cli.CmdRun - N E X T F L O W  ~  version 20.10.0
Mar-15 15:00:17.001 [main] INFO  nextflow.cli.CmdRun - Launching `./main.nf` [evil_swanson] - revision: 949dd47d89
Mar-15 15:00:17.023 [main] DEBUG nextflow.config.ConfigBuilder - Found config local: /Users/ord006/WorkBench/tools/nextflow/ska-sdp-continuum-test/pipelines/nextflow.config
Mar-15 15:00:17.024 [main] DEBUG nextflow.config.ConfigBuilder - Parsing config file: /Users/ord006/WorkBench/tools/nextflow/ska-sdp-continuum-test/pipelines/nextflow.config
Mar-15 15:00:17.029 [main] DEBUG nextflow.config.ConfigBuilder - Applying config profile: `standard`
Mar-15 15:00:17.082 [main] DEBUG nextflow.Session - Session uuid: 00be1886-165d-467e-8f6a-cbc9de43e9b9
Mar-15 15:00:17.082 [main] DEBUG nextflow.Session - Run name: evil_swanson
Mar-15 15:00:17.083 [main] DEBUG nextflow.Session - Executor pool size: 8
Mar-15 15:00:17.109 [main] DEBUG nextflow.cli.CmdRun - 
  Version: 20.10.0 build 5430
  Created: 01-11-2020 15:14 UTC (02-11-2020 02:14 AEDT)
  System: Mac OS X 10.16
  Runtime: Groovy 3.0.5 on Java HotSpot(TM) 64-Bit Server VM 15.0.1+9-18
  Encoding: UTF-8 (UTF-8)
  Process: 30974@miranda [127.0.0.1]
  CPUs: 8 - Mem: 16 GB (173.3 MB) - Swap: 2 GB (754.8 MB)
Mar-15 15:00:17.121 [main] DEBUG nextflow.Session - Work-dir: /Users/ord006/WorkBench/tools/nextflow/ska-sdp-continuum-test/pipelines/work [Mac OS X]
Mar-15 15:00:17.121 [main] DEBUG nextflow.Session - Script base path does not exist or is not a directory: /Users/ord006/WorkBench/tools/nextflow/ska-sdp-continuum-test/pipelines/bin
Mar-15 15:00:17.151 [main] DEBUG nextflow.Session - Observer factory: TowerFactory
Mar-15 15:00:17.153 [main] DEBUG nextflow.Session - Observer factory: DefaultObserverFactory
Mar-15 15:00:17.245 [main] DEBUG nextflow.Session - Session start invoked
Mar-15 15:00:17.422 [main] DEBUG nextflow.script.ScriptRunner - > Launching execution
Mar-15 15:00:17.429 [main] DEBUG nextflow.Session - Workflow process names [dsl1]: sayHello
Mar-15 15:00:17.490 [main] DEBUG nextflow.executor.ExecutorFactory - << taskConfig executor: null
Mar-15 15:00:17.490 [main] DEBUG nextflow.executor.ExecutorFactory - >> processorType: 'local'
Mar-15 15:00:17.493 [main] DEBUG nextflow.executor.Executor - [warm up] executor > local
Mar-15 15:00:17.498 [main] DEBUG n.processor.LocalPollingMonitor - Creating local task monitor for executor 'local' > cpus=8; memory=16 GB; capacity=8; pollInterval=100ms; dumpInterval=5m
Mar-15 15:00:17.574 [main] DEBUG nextflow.script.ScriptRunner - > Await termination 
Mar-15 15:00:17.574 [main] DEBUG nextflow.Session - Session await
Mar-15 15:00:17.614 [Actor Thread 3] DEBUG nextflow.util.CacheHelper - [WARN] Unknown hashing type: class groovyx.gpars.dataflow.DataflowQueue
Mar-15 15:00:17.655 [Task submitter] DEBUG nextflow.executor.LocalTaskHandler - Launch cmd line: /bin/bash -ue .command.run
Mar-15 15:00:17.658 [Task submitter] INFO  nextflow.Session - [cb/279ece] Submitted process > sayHello (1)
Mar-15 15:00:17.705 [Task monitor] DEBUG n.processor.TaskPollingMonitor - Task completed > TaskHandler[id: 1; name: sayHello (1); status: COMPLETED; exit: 2; error: -; workDir: /Users/ord006/WorkBench/tools/nextflow/ska-sdp-continuum-test/pipelines/work/cb/279ece0f8d0b7b5d5233df5441af88]
Mar-15 15:00:17.724 [Task monitor] ERROR nextflow.processor.TaskProcessor - Error executing process > 'sayHello (1)'

Caused by:
  Process `sayHello (1)` terminated with an error exit status (2)

Command executed:

  ln -s DataflowQueue(queue=[DataflowVariable(value=/Users/ord006/WorkBench/tools/nextflow/ska-sdp-continuum-test/pipelines/askapsdp-3504.ms), DataflowVariable(value=groovyx.gpars.dataflow.operator.PoisonPill@5961c367)]) ./askap-3504.ms
  mpirun -np 4 imager -c /Users/ord006/WorkBench/tools/nextflow/ska-sdp-continuum-test/pipelines/msmfs-3504.in

Command exit status:
  2

Command output:
  (empty)

Command error:
  .command.sh: line 2: syntax error near unexpected token `('

Work dir:
  /Users/ord006/WorkBench/tools/nextflow/ska-sdp-continuum-test/pipelines/work/cb/279ece0f8d0b7b5d5233df5441af88

Tip: view the complete command output by changing to the process work dir and entering the command `cat .command.out`
Mar-15 15:00:17.730 [main] DEBUG nextflow.Session - Session await > all process finished
Mar-15 15:00:17.730 [Task monitor] DEBUG nextflow.Session - Session aborted -- Cause: Process `sayHello (1)` terminated with an error exit status (2)
Mar-15 15:00:17.746 [main] DEBUG nextflow.Session - Session await > all barriers passed
Mar-15 15:00:17.750 [main] DEBUG nextflow.trace.WorkflowStatsObserver - Workflow completed > WorkflowStats[succeededCount=0; failedCount=1; ignoredCount=0; cachedCount=0; pendingCount=0; submittedCount=0; runningCount=0; retriesCount=0; abortedCount=0; succeedDuration=0ms; failedDuration=2ms; cachedDuration=0ms;loadCpus=0; loadMemory=0; peakRunning=1; peakCpus=1; peakMemory=0; ]
Mar-15 15:00:17.935 [main] DEBUG nextflow.CacheDB - Closing CacheDB done
Mar-15 15:00:17.938 [main] DEBUG nextflow.util.SpuriousDeps - AWS S3 uploader shutdown
Mar-15 15:00:17.945 [main] DEBUG nextflow.script.ScriptRunner - > Execution complete -- Goodbye
