Mar-15 16:14:17.195 [main] DEBUG nextflow.cli.Launcher - $> nextflow run .
Mar-15 16:14:17.253 [main] INFO  nextflow.cli.CmdRun - N E X T F L O W  ~  version 20.10.0
Mar-15 16:14:17.813 [main] INFO  nextflow.cli.CmdRun - Launching `./main.nf` [pedantic_mandelbrot] - revision: fabcc12243
Mar-15 16:14:17.862 [main] DEBUG nextflow.config.ConfigBuilder - Found config local: /Users/ord006/WorkBench/tools/nextflow/ska-sdp-continuum-test/pipelines/yandasoft/nextflow.config
Mar-15 16:14:17.862 [main] DEBUG nextflow.config.ConfigBuilder - Parsing config file: /Users/ord006/WorkBench/tools/nextflow/ska-sdp-continuum-test/pipelines/yandasoft/nextflow.config
Mar-15 16:14:17.868 [main] DEBUG nextflow.config.ConfigBuilder - Applying config profile: `standard`
Mar-15 16:14:17.942 [main] DEBUG nextflow.Session - Session uuid: c76a4ddb-c259-4eea-815f-61e6088024af
Mar-15 16:14:17.942 [main] DEBUG nextflow.Session - Run name: pedantic_mandelbrot
Mar-15 16:14:17.942 [main] DEBUG nextflow.Session - Executor pool size: 8
Mar-15 16:14:17.984 [main] DEBUG nextflow.cli.CmdRun - 
  Version: 20.10.0 build 5430
  Created: 01-11-2020 15:14 UTC (02-11-2020 02:14 AEDT)
  System: Mac OS X 10.16
  Runtime: Groovy 3.0.5 on Java HotSpot(TM) 64-Bit Server VM 15.0.1+9-18
  Encoding: UTF-8 (UTF-8)
  Process: 42248@miranda [127.0.0.1]
  CPUs: 8 - Mem: 16 GB (48.8 MB) - Swap: 3 GB (1.6 GB)
Mar-15 16:14:18.001 [main] DEBUG nextflow.Session - Work-dir: /Users/ord006/WorkBench/tools/nextflow/ska-sdp-continuum-test/pipelines/yandasoft/work [Mac OS X]
Mar-15 16:14:18.001 [main] DEBUG nextflow.Session - Script base path does not exist or is not a directory: /Users/ord006/WorkBench/tools/nextflow/ska-sdp-continuum-test/pipelines/yandasoft/bin
Mar-15 16:14:18.051 [main] DEBUG nextflow.Session - Observer factory: TowerFactory
Mar-15 16:14:18.054 [main] DEBUG nextflow.Session - Observer factory: DefaultObserverFactory
Mar-15 16:14:18.196 [main] DEBUG nextflow.Session - Session start invoked
Mar-15 16:14:18.635 [main] DEBUG nextflow.script.ScriptRunner - > Launching execution
Mar-15 16:14:18.644 [main] DEBUG nextflow.Session - Workflow process names [dsl1]: image, test
Mar-15 16:14:18.721 [main] DEBUG nextflow.executor.ExecutorFactory - << taskConfig executor: null
Mar-15 16:14:18.721 [main] DEBUG nextflow.executor.ExecutorFactory - >> processorType: 'local'
Mar-15 16:14:18.725 [main] DEBUG nextflow.executor.Executor - [warm up] executor > local
Mar-15 16:14:18.730 [main] DEBUG n.processor.LocalPollingMonitor - Creating local task monitor for executor 'local' > cpus=8; memory=16 GB; capacity=8; pollInterval=100ms; dumpInterval=5m
Mar-15 16:14:18.804 [main] DEBUG nextflow.executor.ExecutorFactory - << taskConfig executor: null
Mar-15 16:14:18.804 [main] DEBUG nextflow.executor.ExecutorFactory - >> processorType: 'local'
Mar-15 16:14:18.810 [main] DEBUG nextflow.script.ScriptRunner - > Await termination 
Mar-15 16:14:18.811 [main] DEBUG nextflow.Session - Session await
Mar-15 16:14:18.892 [Task submitter] DEBUG nextflow.executor.LocalTaskHandler - Launch cmd line: /bin/bash -ue .command.run
Mar-15 16:14:18.895 [Task submitter] INFO  nextflow.Session - [6e/a599ed] Submitted process > image (1)
Mar-15 16:15:05.686 [SIGINT handler] DEBUG nextflow.Session - Session aborted -- Cause: SIGINT
Mar-15 16:15:05.713 [SIGINT handler] DEBUG nextflow.Session - The following nodes are still active:
[process] test
  status=ACTIVE
  port 0: (queue) OPEN  ; channel: ri
  port 1: (cntrl) -     ; channel: $

Mar-15 16:15:05.715 [main] DEBUG nextflow.Session - Session await > all process finished
Mar-15 16:15:05.715 [main] DEBUG nextflow.Session - Session await > all barriers passed
Mar-15 16:15:05.722 [main] WARN  n.processor.TaskPollingMonitor - Killing pending tasks (1)
Mar-15 16:15:05.744 [main] DEBUG nextflow.trace.WorkflowStatsObserver - Workflow completed > WorkflowStats[succeededCount=0; failedCount=0; ignoredCount=0; cachedCount=0; pendingCount=0; submittedCount=0; runningCount=0; retriesCount=0; abortedCount=1; succeedDuration=0ms; failedDuration=0ms; cachedDuration=0ms;loadCpus=0; loadMemory=0; peakRunning=1; peakCpus=1; peakMemory=0; ]
Mar-15 16:15:05.917 [main] DEBUG nextflow.CacheDB - Closing CacheDB done
Mar-15 16:15:05.923 [main] DEBUG nextflow.util.SpuriousDeps - AWS S3 uploader shutdown
Mar-15 16:15:05.938 [main] DEBUG nextflow.script.ScriptRunner - > Execution complete -- Goodbye
